{
    "count": 40,
    "next": "https://swapi.co/api/starships/?page=2",
    "previous": null,
    "results": [
        {
            "name": "X-wing",
            "model": "T-65 X-wing",
            "manufacturer": "Incom Corporation",
            "cost_in_credits": "149999",
            "length": "12.5",
            "max_atmosphering_speed": "1050",
            "crew": "1",
            "passengers": "0",
            "cargo_capacity": "110",
            "consumables": "1 week",
            "hyperdrive_rating": "1.0",
            "MGLT": "100",
            "starship_class": "Starfighter",
            "pilots": [
                "https://swapi.co/api/people/1/",
                "https://swapi.co/api/people/9/",
                "https://swapi.co/api/people/18/",
                "https://swapi.co/api/people/19/"
            ],
            "films": [
                "https://swapi.co/api/films/2/",
                "https://swapi.co/api/films/3/",
                "https://swapi.co/api/films/1/"
            ],
            "created": "2014-12-12T11:19:05.340000Z",
            "edited": "2014-12-22T17:35:44.491233Z",
            "url": "https://swapi.co/api/starships/12/"
        },
        {
            "name": "TIE Advanced x1",
            "model": "Twin Ion Engine Advanced x1",
            "manufacturer": "Sienar Fleet Systems",
            "cost_in_credits": "unknown",
            "length": "9.2",
            "max_atmosphering_speed": "1200",
            "crew": "1",
            "passengers": "0",
            "cargo_capacity": "150",
            "consumables": "5 days",
            "hyperdrive_rating": "1.0",
            "MGLT": "105",
            "starship_class": "Starfighter",
            "pilots": [
                "https://swapi.co/api/people/4/"
            ],
            "films": [
                "https://swapi.co/api/films/1/"
            ],
            "created": "2014-12-12T11:21:32.991000Z",
            "edited": "2014-12-22T17:35:44.549047Z",
            "url": "https://swapi.co/api/starships/13/"
        },
        {
            "name": "Slave 1",
            "model": "Firespray-31-class patrol and attack",
            "manufacturer": "Kuat Systems Engineering",
            "cost_in_credits": "unknown",
            "length": "21.5",
            "max_atmosphering_speed": "1000",
            "crew": "1",
            "passengers": "6",
            "cargo_capacity": "70000",
            "consumables": "1 month",
            "hyperdrive_rating": "3.0",
            "MGLT": "70",
            "starship_class": "Patrol craft",
            "pilots": [
                "https://swapi.co/api/people/22/"
            ],
            "films": [
                "https://swapi.co/api/films/2/",
                "https://swapi.co/api/films/5/"
            ],
            "created": "2014-12-15T13:00:56.332000Z",
            "edited": "2014-12-22T17:35:44.716273Z",
            "url": "https://swapi.co/api/starships/21/"
        },
        {
            "name": "Imperial shuttle",
            "model": "Lambda-class T-4a shuttle",
            "manufacturer": "Sienar Fleet Systems",
            "cost_in_credits": "240000",
            "length": "20",
            "max_atmosphering_speed": "850",
            "crew": "6",
            "passengers": "20",
            "cargo_capacity": "80000",
            "consumables": "2 months",
            "hyperdrive_rating": "1.0",
            "MGLT": "50",
            "starship_class": "Armed government transport",
            "pilots": [
                "https://swapi.co/api/people/1/",
                "https://swapi.co/api/people/13/",
                "https://swapi.co/api/people/14/"
            ],
            "films": [
                "https://swapi.co/api/films/2/",
                "https://swapi.co/api/films/3/"
            ],
            "created": "2014-12-15T13:04:47.235000Z",
            "edited": "2014-12-22T17:35:44.795405Z",
            "url": "https://swapi.co/api/starships/22/"
        },
        {
            "name": "EF76 Nebulon-B escort frigate",
            "model": "EF76 Nebulon-B escort frigate",
            "manufacturer": "Kuat Drive Yards",
            "cost_in_credits": "8500000",
            "length": "300",
            "max_atmosphering_speed": "800",
            "crew": "854",
            "passengers": "75",
            "cargo_capacity": "6000000",
            "consumables": "2 years",
            "hyperdrive_rating": "2.0",
            "MGLT": "40",
            "starship_class": "Escort ship",
            "pilots": [],
            "films": [
                "https://swapi.co/api/films/2/",
                "https://swapi.co/api/films/3/"
            ],
            "created": "2014-12-15T13:06:30.813000Z",
            "edited": "2014-12-22T17:35:44.848329Z",
            "url": "https://swapi.co/api/starships/23/"
        }
    ]
}
